{
	"playlist":[
		{
			"name":"Galop from William Tell Overture",
			"author":"John Logan (orch. Fletcher)",
			"url":"Galop",
			"lyrics":"Your child will love this one, and it’s even better if you hold their hands like reins and move along with the music. Giddyup!\n\n Peter Oundjian Conductor\n Royal Scottish National Orchestra"
		},
		{
			"name":"Pizzicati from Sylvia",
			"author":"Léo Delibes",
			"url":"Pizzicati",
			"lyrics":"This music always raises a smile! It’s great for playing and singing ‘peek-a-boo’ or simply moving fingers in time with the music and giving your baby a tickle!\n\n Peter Oundjian Conductor\n Royal Scottish National Orchestra"
		},
		{
			"name":"Three Craws Sat Upon a Wa’",
			"author":"Trad. (Arr. Doughty)",
			"url":"ThreeCrawsSatUponAWa",
			"lyrics":"Three Craws is a traditional Scottish song. Sing along with the RSNO Junior Chorus and make up the actions as you go along. Use your fingers for the numbers and mime crying for greetin’, touch your chin to show the broken jaw etc.\n\n Three craws sat upon a wa’,\n Sat upon a wa’, sat upon a wa’,\n Three craws sat upon a wa’\n On a cauld and frosty mornin’.\n The first craw was greetin’ for his maw…\n\n The second craw fell an’ broke his jaw…\n\n The third craw, couldnae craw at a’…\n The fourth craw, wisnae there at a’…\n\n And that’s a’, absolutely a’…\n Christopher Bell Conductor\n RSNO Junior Chorus\n Royal Scottish National Orchestra"
		}
	]
}